﻿GPA,FATHER EMPLOY,MOTHER EMPLOY,parent marriage status,self estamate,discipline,dropout
60,yes,no,divorce,5,8,yes
70,yes,no,marriage,7,7,no
80,yes,yes,marriage,8,4,yes
40,no,no,marriage,3,7,yes
40,yes,no,marriage,6,7,no
50,yes,yes,marriage,4,6,no
70,yes,yes,marriage,8,2,yes
30,no,no,divorce,3,3,yes
40,yes,no,divorce,4,5,yes
80,yes,yes,marriage,8,9,no
90,yes,yes,marriage,5,8,no
80,no,yes,divorce,7,2,no